<svg xmlns="http://www.w3.org/2000/svg" width="23" height="31" viewBox="0 0 23 31">
  <metadata><?xpacket begin="﻿" id="W5M0MpCehiHzreSzNTczkc9d"?>
<x:xmpmeta xmlns:x="adobe:ns:meta/" x:xmptk="Adobe XMP Core 5.6-c138 79.159824, 2016/09/14-01:09:01        ">
   <rdf:RDF xmlns:rdf="http://www.w3.org/1999/02/22-rdf-syntax-ns#">
      <rdf:Description rdf:about=""/>
   </rdf:RDF>
</x:xmpmeta>
                                                                                                    
                                                                                                    
                                                                                                    
                                                                                                    
                                                                                                    
                                                                                                    
                                                                                                    
                                                                                                    
                                                                                                    
                                                                                                    
                                                                                                    
                                                                                                    
                                                                                                    
                                                                                                    
                                                                                                    
                                                                                                    
                                                                                                    
                                                                                                    
                                                                                                    
                                                                                                    
                           
<?xpacket end="w"?></metadata>
<defs>
    <style>
      .cls-1 {
        fill: #fed27d;
        fill-rule: evenodd;
      }
    </style>
  </defs>
  <path id="cinema_icon" class="cls-1" d="M813.114,775.2a0.521,0.521,0,0,1-.523-0.517,0.523,0.523,0,0,0-1.045,0,1.56,1.56,0,0,0,1.568,1.55A0.517,0.517,0,1,0,813.114,775.2Zm4.182,1.033a0.52,0.52,0,0,0,.523-0.516,0.52,0.52,0,0,1,.522-0.517,0.517,0.517,0,1,0,0-1.033,1.561,1.561,0,0,0-1.568,1.55A0.519,0.519,0,0,0,817.3,776.233Zm-17.774,0a0.52,0.52,0,0,0,.523-0.516,1.034,1.034,0,0,1,1.4-.967,0.524,0.524,0,0,0,.491-0.072,0.514,0.514,0,0,0,.209-0.445c0-.013-0.008-0.054-0.009-0.066a1.041,1.041,0,0,1,1.045-1.034,1.059,1.059,0,0,1,.409.082,0.527,0.527,0,0,0,.545-0.083,0.515,0.515,0,0,0,.166-0.521,1.985,1.985,0,0,1-.074-0.511,2.091,2.091,0,0,1,4.031-.757,0.525,0.525,0,0,0,.9.127,1.046,1.046,0,0,1,1.785.227,0.522,0.522,0,0,0,.463.316,0.512,0.512,0,0,0,.484-0.282,3.141,3.141,0,0,1,5.931,1.391c0,0.012,0,.052,0,0.064a0.516,0.516,0,0,0,.192.4,0.527,0.527,0,0,0,.436.106,2.094,2.094,0,0,1,2.511,2.025,0.523,0.523,0,0,0,1.046,0,3.122,3.122,0,0,0-3.137-3.1h-0.032a4.2,4.2,0,0,0-7.437-2.037,2.1,2.1,0,0,0-2.5-.244,3.141,3.141,0,0,0-5.712,1.764A25.13,25.13,0,0,0,799,775.717,0.519,0.519,0,0,0,799.522,776.233Zm15.9-1.639a0.525,0.525,0,0,0,.739,0,2.048,2.048,0,0,0,0-2.922,2.11,2.11,0,0,0-2.957,0,0.512,0.512,0,0,0,0,.73,0.526,0.526,0,0,0,.739,0,1.057,1.057,0,0,1,1.479,0,1.023,1.023,0,0,1,0,1.461A0.512,0.512,0,0,0,815.421,774.594Zm6.445,2.844a0.522,0.522,0,0,0-.388-0.171H806.841a0.517,0.517,0,1,0,0,1.033H820.9l-2.028,19.045a1.686,1.686,0,0,1-1.573,1.622H803.7a1.675,1.675,0,0,1-1.571-1.6L800.1,778.3h3.6a2.067,2.067,0,1,0,0-4.133,0.517,0.517,0,1,0,0,1.033,1.034,1.034,0,1,1,0,2.067h-4.182a0.526,0.526,0,0,0-.389.171,0.514,0.514,0,0,0-.131.4l2.093,19.65A2.68,2.68,0,0,0,803.7,800H817.3a2.69,2.69,0,0,0,2.611-2.53L822,777.837A0.511,0.511,0,0,0,821.866,777.438Zm-18.208,1.9a0.519,0.519,0,0,0-.475.56l1.569,17.567a0.52,0.52,0,0,0,.52.471,0.354,0.354,0,0,0,.046,0,0.519,0.519,0,0,0,.475-0.56L804.225,779.8A0.522,0.522,0,0,0,803.658,779.335Zm2.66,9.3a4.12,4.12,0,0,0,1.935,3.481l0.156,5.318a0.519,0.519,0,0,0,.523.5h0.015a0.519,0.519,0,0,0,.507-0.531l-0.141-4.807a4.182,4.182,0,0,0,2.374,0l-0.142,4.807a0.52,0.52,0,0,0,.508.531h0.015a0.52,0.52,0,0,0,.523-0.5l0.156-5.318a4.094,4.094,0,0,0,.225-6.807l0.141-5.444a0.519,0.519,0,0,0-.509-0.53,0.507,0.507,0,0,0-.536.5l-0.127,4.921a4.153,4.153,0,0,0-2.882,0l-0.127-4.921a0.521,0.521,0,0,0-.523-0.5H808.4a0.521,0.521,0,0,0-.51.53l0.141,5.444A4.113,4.113,0,0,0,806.318,788.633Zm4.182-3.1a3.1,3.1,0,1,1-3.137,3.1A3.121,3.121,0,0,1,810.5,785.533Zm5.228,12.4a0.52,0.52,0,0,0,.52-0.471l1.569-17.567a0.519,0.519,0,0,0-.475-0.56,0.527,0.527,0,0,0-.567.469l-1.568,17.567a0.519,0.519,0,0,0,.475.56A0.354,0.354,0,0,0,815.728,797.933Zm-7.842-22.216a0.52,0.52,0,0,0,.523-0.517,1.04,1.04,0,0,1,1.045-1.033,0.517,0.517,0,1,0,0-1.034,2.081,2.081,0,0,0-2.091,2.067A0.52,0.52,0,0,0,807.886,775.717Zm-1.045-4.65a1.561,1.561,0,0,0-1.569,1.55,0.523,0.523,0,0,0,1.046,0,0.52,0.52,0,0,1,.523-0.517A0.517,0.517,0,1,0,806.841,771.067Z" transform="translate(-799 -769)"/>
</svg>
