<?xml version="1.0" encoding="utf-8"?>
<!-- Generator: Adobe Illustrator 19.0.1, SVG Export Plug-In . SVG Version: 6.00 Build 0)  -->
<svg version="1.1" id="Layer_1" xmlns="http://www.w3.org/2000/svg" xmlns:xlink="http://www.w3.org/1999/xlink" x="0px" y="0px"
	 viewBox="0 0 40 31" style="enable-background:new 0 0 40 31;" xml:space="preserve">
<style type="text/css">
	.st0{fill:#8B1812;}
</style>
<g>
	<g>
		<path class="st0" d="M7.1,13.4h25.8c0.3,0,0.5-0.2,0.5-0.5c0-0.3-0.2-0.5-0.5-0.5H7.1c-0.3,0-0.5,0.2-0.5,0.5
			C6.6,13.2,6.8,13.4,7.1,13.4L7.1,13.4z M7.1,13.4"/>
	</g>
	<path class="st0" d="M11.7,10.3c-0.3,0-0.5,0.2-0.5,0.5c0,0.3,0.2,0.5,0.5,0.5H26c0.3,0,0.5-0.2,0.5-0.5c0-0.3-0.2-0.5-0.5-0.5
		H11.7z M11.7,10.3"/>
	<path class="st0" d="M28.1,10.3c-0.3,0-0.5,0.2-0.5,0.5c0,0.3,0.2,0.5,0.5,0.5h0c0.3,0,0.5-0.2,0.5-0.5
		C28.7,10.6,28.5,10.3,28.1,10.3L28.1,10.3z M15.1,10.3"/>
	<path class="st0" d="M9.7,11.4c0.3,0,0.5-0.2,0.5-0.5C10.2,5.4,14.6,1,20,1c5.4,0,9.8,4.4,9.8,9.8c0,0.3,0.2,0.5,0.5,0.5
		c0.3,0,0.5-0.2,0.5-0.5C30.8,4.9,26,0,20,0C14,0,9.1,4.9,9.1,10.8C9.1,11.1,9.4,11.4,9.7,11.4L9.7,11.4z M9.7,11.4"/>
	<g>
		<path class="st0" d="M22.6,15.5c0.3,0,0.5-0.2,0.5-0.5c0-0.3-0.2-0.5-0.5-0.5h-5.2c-0.3,0-0.5,0.2-0.5,0.5c0,0.3,0.2,0.5,0.5,0.5
			h0.5v11.4h-0.5c-0.3,0-0.5,0.2-0.5,0.5c0,0.3,0.2,0.5,0.5,0.5h5.2c0.3,0,0.5-0.2,0.5-0.5c0-0.3-0.2-0.5-0.5-0.5h-0.5V15.5H22.6z
			 M21,26.9H19V15.5H21V26.9z M21,26.9"/>
		<path class="st0" d="M32.9,28.9H7.1c-0.3,0-0.5,0.2-0.5,0.5v1c0,0.3,0.2,0.5,0.5,0.5c0.3,0,0.5-0.2,0.5-0.5V30h24.8v0.5
			c0,0.3,0.2,0.5,0.5,0.5c0.3,0,0.5-0.2,0.5-0.5v-1C33.4,29.2,33.2,28.9,32.9,28.9L32.9,28.9z M32.9,28.9"/>
	</g>
	<path class="st0" d="M14.3,15.5c0.3,0,0.5-0.2,0.5-0.5c0-0.3-0.2-0.5-0.5-0.5H9.1c-0.3,0-0.5,0.2-0.5,0.5c0,0.3,0.2,0.5,0.5,0.5
		h0.5v11.4H9.1c-0.3,0-0.5,0.2-0.5,0.5c0,0.3,0.2,0.5,0.5,0.5h5.2c0.3,0,0.5-0.2,0.5-0.5c0-0.3-0.2-0.5-0.5-0.5h-0.5V15.5H14.3z
		 M12.8,26.9h-2.1V15.5h2.1V26.9z M12.8,26.9"/>
	<path class="st0" d="M30.8,15.5c0.3,0,0.5-0.2,0.5-0.5c0-0.3-0.2-0.5-0.5-0.5h-5.2c-0.3,0-0.5,0.2-0.5,0.5c0,0.3,0.2,0.5,0.5,0.5
		h0.5v11.4h-0.5c-0.3,0-0.5,0.2-0.5,0.5c0,0.3,0.2,0.5,0.5,0.5h5.2c0.3,0,0.5-0.2,0.5-0.5c0-0.3-0.2-0.5-0.5-0.5h-0.5V15.5H30.8z
		 M29.3,26.9h-2.1V15.5h2.1V26.9z M29.3,26.9"/>
</g>
</svg>
