<svg xmlns="http://www.w3.org/2000/svg" width="33" height="31" viewBox="0 0 33 31">
  <metadata><?xpacket begin="﻿" id="W5M0MpCehiHzreSzNTczkc9d"?>
<x:xmpmeta xmlns:x="adobe:ns:meta/" x:xmptk="Adobe XMP Core 5.6-c138 79.159824, 2016/09/14-01:09:01        ">
   <rdf:RDF xmlns:rdf="http://www.w3.org/1999/02/22-rdf-syntax-ns#">
      <rdf:Description rdf:about=""/>
   </rdf:RDF>
</x:xmpmeta>
                                                                                                    
                                                                                                    
                                                                                                    
                                                                                                    
                                                                                                    
                                                                                                    
                                                                                                    
                                                                                                    
                                                                                                    
                                                                                                    
                                                                                                    
                                                                                                    
                                                                                                    
                                                                                                    
                                                                                                    
                                                                                                    
                                                                                                    
                                                                                                    
                                                                                                    
                                                                                                    
                           
<?xpacket end="w"?></metadata>
<defs>
    <style>
      .cls-1 {
        fill: #b4d241;
        fill-rule: evenodd;
      }
    </style>
  </defs>
  <path id="shops_icon" class="cls-1" d="M1126.45,1076.75V1069h-31.9v7.75H1094v20.63a2.62,2.62,0,0,0,2.61,2.62h27.78a2.62,2.62,0,0,0,2.61-2.62v-20.63h-0.55Zm-1.38,0-2.84-3.82,2.8-2.82h0.32v6.64h-0.28Zm-3.02-2.22,1.65,2.22h-1.65v-2.22Zm-19.8-4.42h21.22l-2.36,2.37a0.251,0.251,0,0,0-.04.07,0.555,0.555,0,0,0-.06.08,0.053,0.053,0,0,1-.02.03,0.2,0.2,0,0,0-.01.07,0.425,0.425,0,0,0-.02.11c0,0.01-.01.02-0.01,0.03v3.88h-20.9v-3.88c0-.01-0.01-0.02-0.01-0.03a0.425,0.425,0,0,0-.02-0.11,0.2,0.2,0,0,0-.01-0.07,0.053,0.053,0,0,1-.02-0.03,0.555,0.555,0,0,0-.06-0.08,0.251,0.251,0,0,0-.04-0.07l-2.36-2.37h4.72Zm-4.95,6.64,1.65-2.22v2.22h-1.65Zm-1.65-6.64h0.32l2.8,2.82-2.85,3.82h-0.27v-6.64Zm30.25,27.27a1.515,1.515,0,0,1-1.51,1.51h-27.78a1.515,1.515,0,0,1-1.51-1.51v-19.52h30.8v19.52Zm-8.8-16.2a0.555,0.555,0,0,0-.55.55v3.32a6.05,6.05,0,1,1-12.1,0v-3.32a0.55,0.55,0,1,0-1.1,0v3.32a7.15,7.15,0,1,0,14.3,0v-3.32A0.555,0.555,0,0,0,1117.1,1081.18Zm-12.1.55a0.55,0.55,0,1,0,1.1,0,2.2,2.2,0,1,0-4.4,0,0.55,0.55,0,1,0,1.1,0A1.1,1.1,0,1,1,1105,1081.73Zm12.1-2.21a2.209,2.209,0,0,0-2.2,2.21,0.55,0.55,0,1,0,1.1,0,1.1,1.1,0,1,1,2.2,0,0.55,0.55,0,1,0,1.1,0A2.209,2.209,0,0,0,1117.1,1079.52Zm-9.9-7.75a0.555,0.555,0,0,1,.55.55,0.55,0.55,0,0,1-1.1,0A0.555,0.555,0,0,1,1107.2,1071.77Zm1.65-1.66a0.55,0.55,0,1,1-.55.55A0.548,0.548,0,0,1,1108.85,1070.11Zm0,3.32a0.555,0.555,0,1,1-.55.55A0.555,0.555,0,0,1,1108.85,1073.43Zm1.65-1.66a0.555,0.555,0,0,1,.55.55,0.55,0.55,0,0,1-1.1,0A0.555,0.555,0,0,1,1110.5,1071.77Zm-6.6,0a0.555,0.555,0,0,1,.55.55,0.55,0.55,0,0,1-1.1,0A0.555,0.555,0,0,1,1103.9,1071.77Zm1.65-1.66a0.55,0.55,0,1,1-.55.55A0.548,0.548,0,0,1,1105.55,1070.11Zm0,3.32a0.555,0.555,0,1,1-.55.55A0.555,0.555,0,0,1,1105.55,1073.43Zm-4.95-1.66a0.555,0.555,0,0,1,.55.55,0.55,0.55,0,0,1-1.1,0A0.555,0.555,0,0,1,1100.6,1071.77Zm-1.65-1.66a0.55,0.55,0,1,1-.55.55A0.548,0.548,0,0,1,1098.95,1070.11Zm3.3,0a0.55,0.55,0,1,1-.55.55A0.548,0.548,0,0,1,1102.25,1070.11Zm0,3.32a0.555,0.555,0,1,1-.55.55A0.555,0.555,0,0,1,1102.25,1073.43Zm18.15-1.66a0.555,0.555,0,0,1,.55.55,0.55,0.55,0,0,1-1.1,0A0.555,0.555,0,0,1,1120.4,1071.77Zm1.65-1.66a0.55,0.55,0,1,1-.55.55A0.548,0.548,0,0,1,1122.05,1070.11Zm-9.9,0a0.55,0.55,0,1,1-.55.55A0.548,0.548,0,0,1,1112.15,1070.11Zm0,3.32a0.555,0.555,0,1,1-.55.55A0.555,0.555,0,0,1,1112.15,1073.43Zm1.65-1.66a0.555,0.555,0,0,1,.55.55,0.55,0.55,0,0,1-1.1,0A0.555,0.555,0,0,1,1113.8,1071.77Zm3.3,0a0.555,0.555,0,0,1,.55.55,0.55,0.55,0,0,1-1.1,0A0.555,0.555,0,0,1,1117.1,1071.77Zm-9.9,3.32a0.555,0.555,0,1,1-.55.55A0.555,0.555,0,0,1,1107.2,1075.09Zm3.3,0a0.555,0.555,0,1,1-.55.55A0.555,0.555,0,0,1,1110.5,1075.09Zm-6.6,0a0.555,0.555,0,1,1-.55.55A0.555,0.555,0,0,1,1103.9,1075.09Zm-3.3,0a0.555,0.555,0,1,1-.55.55A0.555,0.555,0,0,1,1100.6,1075.09Zm19.8,0a0.555,0.555,0,1,1-.55.55A0.555,0.555,0,0,1,1120.4,1075.09Zm-6.6,0a0.555,0.555,0,1,1-.55.55A0.555,0.555,0,0,1,1113.8,1075.09Zm3.3,0a0.555,0.555,0,1,1-.55.55A0.555,0.555,0,0,1,1117.1,1075.09Zm-1.65-4.98a0.55,0.55,0,1,1-.55.55A0.548,0.548,0,0,1,1115.45,1070.11Zm3.3,0a0.55,0.55,0,1,1-.55.55A0.548,0.548,0,0,1,1118.75,1070.11Zm-3.3,3.32a0.555,0.555,0,1,1-.55.55A0.555,0.555,0,0,1,1115.45,1073.43Zm3.3,0a0.555,0.555,0,1,1-.55.55A0.555,0.555,0,0,1,1118.75,1073.43Z" transform="translate(-1094 -1069)"/>
</svg>
