<?xml version="1.0" encoding="utf-8"?>
<!-- Generator: Adobe Illustrator 19.0.1, SVG Export Plug-In . SVG Version: 6.00 Build 0)  -->
<svg version="1.1" id="Layer_1" xmlns="http://www.w3.org/2000/svg" xmlns:xlink="http://www.w3.org/1999/xlink" x="0px" y="0px"
	 width="35px" height="35px" viewBox="-330.8 333.5 35 35" style="enable-background:new -330.8 333.5 35 35;" xml:space="preserve"
	>
<style type="text/css">
	.st0{fill:#1CB7EB;}
	.st1{fill:#F8F8F8;}
</style>
<path class="st1" d="M-313.3,333.5c-9.7,0-17.5,7.8-17.5,17.5s7.8,17.5,17.5,17.5s17.5-7.8,17.5-17.5S-303.7,333.5-313.3,333.5z
	 M-306,347.1v0.5c0,5.5-3.9,11.7-10.9,11.7c-2.2,0-4.2-0.7-5.9-1.9c0.4,0.1,0.7,0.1,0.9,0.1c1.7,0,3.4-0.7,4.7-1.8
	c-1.7,0-3.1-1.2-3.6-2.8c0.2,0.1,0.5,0.1,0.7,0.1c0.4,0,0.7-0.1,1-0.1c-1.8-0.4-3.1-2.1-3.1-4.1v-0.1c0.5,0.3,1.1,0.5,1.8,0.5
	c-1-0.7-1.7-2-1.7-3.4c0-0.8,0.1-1.5,0.5-2.1c1.9,2.5,4.7,4.2,7.9,4.3c-0.1-0.3-0.1-0.7-0.1-0.9c0-2.3,1.8-4.2,3.9-4.2
	c1.1,0,2,0.5,2.8,1.3c0.9-0.2,1.7-0.6,2.5-1c-0.3,0.9-0.9,1.7-1.7,2.3c0.7-0.1,1.5-0.3,2.2-0.7C-304.5,345.6-305.2,346.3-306,347.1z
	"/>
</svg>
