<?xml version="1.0" encoding="utf-8"?>
<!-- Generator: Adobe Illustrator 19.0.1, SVG Export Plug-In . SVG Version: 6.00 Build 0)  -->
<svg version="1.1" id="Layer_1" xmlns="http://www.w3.org/2000/svg" xmlns:xlink="http://www.w3.org/1999/xlink" x="0px" y="0px"
	 width="35px" height="35px" viewBox="150 350.7 35 35" style="enable-background:new 150 350.7 35 35;" xml:space="preserve">
<style type="text/css">
	.st0{fill:#4D77A2;}
	.st1{fill:#F8F8F8;}
</style>
<g>
	<g id="Layer_2">
		<g>
			<path class="st0" d="M167.5,350.7c-9.7,0-17.5,7.8-17.5,17.5s7.8,17.5,17.5,17.5s17.5-7.8,17.5-17.5S177.1,350.7,167.5,350.7z
				 M177.5,375.9l-3.1,0c0,0-0.7,0.1-1.5-0.5c-1.1-0.8-2.2-2.8-3.1-2.6c-0.9,0.3-0.8,2.1-0.8,2.1s0,0.4-0.2,0.6
				c-0.2,0.2-0.6,0.3-0.6,0.3h-1.4c0,0-3,0.2-5.7-2.6c-2.9-3-5.5-9-5.5-9s-0.1-0.4,0-0.6c0.2-0.2,0.7-0.2,0.7-0.2l3.3,0
				c0,0,0.3,0.1,0.5,0.2c0.2,0.1,0.3,0.4,0.3,0.4s0.5,1.3,1.2,2.6c1.4,2.4,2,2.9,2.5,2.6c0.7-0.4,0.5-3.3,0.5-3.3s0-1.1-0.3-1.6
				c-0.3-0.4-0.8-0.5-1-0.5c-0.2,0,0.1-0.5,0.5-0.6c0.6-0.3,1.6-0.3,2.9-0.3c1,0,1.2,0.1,1.6,0.2c1.1,0.3,0.7,1.3,0.7,3.9
				c0,0.8-0.1,2,0.4,2.3c0.3,0.2,0.9,0,2.4-2.6c0.7-1.2,1.3-2.7,1.3-2.7s0.1-0.3,0.3-0.4c0.2-0.1,0.4-0.1,0.4-0.1l3.5,0
				c0,0,1-0.1,1.2,0.3c0.2,0.5-0.4,1.6-1.8,3.5c-2.3,3.1-2.6,2.8-0.7,4.6c1.8,1.7,2.2,2.5,2.3,2.6
				C179.1,375.8,177.5,375.9,177.5,375.9z"/>
		</g>
	</g>
</g>
</svg>
